{
    "name": "pCylinder2Geometry",
    "vertices": [6.07808,0.117226,-0.488343,6.07808,-0.117227,-0.488343,1.61008,-0.117227,-0.488343,1.61008,0.117226,-0.488343,6.07808,-0.284027,-0.343808,1.61008,-0.284027,-0.343808,6.07808,-0.284027,0.343807,1.61008,-0.284027,0.343807,6.07808,-0.117227,0.488342,1.61008,-0.117227,0.488342,6.07808,0.117226,0.488342,1.61008,0.117226,0.488342,6.07808,0.284026,0.343807,1.61008,0.284026,0.343807,6.07808,0.284026,-0.343808,1.61008,0.284026,-0.343808,1.61008,0,0,3.10889,0.204795,-0.247901,3.10889,0.204795,0.247901,3.10889,0.084525,0.352117,3.10889,-0.084526,0.352117,3.10889,-0.204796,0.2479,3.10889,-0.204797,-0.247901,3.10889,-0.084526,-0.352117,3.10889,0.084525,-0.352117,6.07808,0.392903,0.4756,6.07808,0.392903,-0.475601,6.07808,0.162164,0.67554,6.07808,-0.162163,0.67554,6.07808,-0.392904,0.4756,6.07808,-0.392904,-0.475601,6.07808,-0.162164,-0.675541,6.07808,0.162163,-0.675541,6.77079,0.392903,0.4756,6.77079,0.392903,-0.475601,6.77079,0.162164,0.67554,6.77079,-0.162163,0.67554,6.77079,-0.392904,0.4756,6.77079,-0.392904,-0.475601,6.77079,-0.162164,-0.675541,6.77079,0.162163,-0.675541,6.98391,0.392903,-0.475601,6.98391,0.392903,0.4756,6.98391,0.204795,0.247901,6.98391,0.204795,-0.247901,6.98391,0.162164,0.67554,6.98391,0.084525,0.352117,6.98391,-0.162163,0.67554,6.98391,-0.084526,0.352117,6.98391,-0.392904,0.4756,6.98391,-0.204796,0.2479,6.98391,-0.392904,-0.475601,6.98391,-0.204797,-0.247901,6.98391,-0.162164,-0.675541,6.98391,-0.084526,-0.352117,6.98391,0.162163,-0.675541,6.98391,0.084525,-0.352117,6.90332,0.162163,-0.675541,6.90332,0.392903,-0.475601,6.90332,-0.162164,-0.675541,6.90332,-0.392904,-0.475601,6.90332,-0.392904,0.4756,6.90332,-0.162163,0.67554,6.90332,0.162164,0.67554,6.90332,0.392903,0.4756],
    "faces": [41,0,1,2,3,0,1,2,3,0,1,2,3,41,1,4,5,2,1,4,5,2,1,4,5,2,41,4,6,7,5,4,6,7,5,4,6,7,5,41,6,8,9,7,6,8,9,7,6,8,9,7,41,8,10,11,9,8,10,11,9,8,10,11,9,41,10,12,13,11,10,12,13,11,10,12,13,11,41,12,14,15,13,12,14,15,13,12,14,15,13,41,14,0,3,15,14,16,17,15,14,0,3,15,40,3,2,16,18,19,20,3,2,16,40,2,5,16,19,21,20,2,5,16,40,5,7,16,21,22,20,5,7,16,40,7,9,16,22,23,20,7,9,16,40,9,11,16,23,24,20,9,11,16,40,11,13,16,24,25,20,11,13,16,40,13,15,16,25,26,20,13,15,16,40,15,3,16,26,18,20,15,3,16,40,17,23,24,27,33,34,17,18,19,40,21,22,23,31,32,33,20,21,18,40,19,20,21,29,30,31,22,23,20,40,17,18,19,27,28,29,17,24,22,40,17,21,23,27,31,33,17,20,18,40,17,19,21,27,29,31,17,22,20,41,14,12,25,26,27,28,28,27,14,12,13,15,41,12,10,27,25,28,29,29,28,12,10,11,13,41,10,8,28,27,29,30,30,29,10,8,9,11,41,8,6,29,28,30,31,31,30,8,6,7,9,41,6,4,30,29,31,32,32,31,6,4,5,7,41,4,1,31,30,32,33,33,32,4,1,2,5,41,1,0,32,31,33,34,34,33,1,0,3,2,41,0,14,26,32,34,27,27,34,0,14,15,3,41,26,25,33,34,27,28,28,27,15,13,25,26,41,25,27,35,33,28,29,29,28,13,11,27,25,41,27,28,36,35,29,30,30,29,11,9,28,27,41,28,29,37,36,30,31,31,30,9,7,29,28,41,29,30,38,37,31,32,32,31,7,5,30,29,41,30,31,39,38,32,33,33,32,5,2,31,30,41,31,32,40,39,33,34,34,33,2,3,32,31,41,32,26,34,40,34,27,27,34,3,15,26,32,41,41,42,43,44,27,28,28,27,20,21,33,34,41,42,45,46,43,28,29,29,28,21,18,35,33,41,45,47,48,46,29,30,30,29,18,19,36,35,41,47,49,50,48,30,31,31,30,19,17,37,36,41,49,51,52,50,31,32,32,31,17,24,38,37,41,51,53,54,52,32,33,33,32,24,22,39,38,41,53,55,56,54,33,34,34,33,22,23,40,39,41,55,41,44,56,34,27,27,34,23,20,34,40,41,44,43,18,17,27,28,28,27,34,33,24,17,41,43,46,19,18,28,29,29,28,33,35,22,24,41,46,48,20,19,29,30,30,29,35,36,23,22,41,48,50,21,20,30,31,31,30,36,37,20,23,41,50,52,22,21,31,32,32,31,37,38,21,20,41,52,54,23,22,32,33,33,32,38,39,18,21,41,54,56,24,23,33,34,34,33,39,40,19,18,41,56,44,17,24,34,27,27,34,40,34,17,19,41,57,58,41,55,34,27,27,34,32,26,20,23,41,59,57,55,53,33,34,34,33,31,32,23,22,41,60,59,53,51,32,33,33,32,30,31,22,24,41,61,60,51,49,31,32,32,31,29,30,24,17,41,62,61,49,47,30,31,31,30,41,29,17,19,41,63,62,47,45,29,30,30,29,27,41,19,18,41,64,63,45,42,28,29,29,28,25,27,18,21,41,58,64,42,41,27,28,28,27,26,25,21,20],
    "uvs": [[0.375,0.3125,0.40625,0.3125,0.40625,0.68844,0.375,0.68844,0.4375,0.3125,0.4375,0.68844,0.46875,0.3125,0.46875,0.68844,0.5,0.3125,0.5,0.68844,0.53125,0.3125,0.53125,0.68844,0.5625,0.3125,0.5625,0.68844,0.59375,0.3125,0.59375,0.68844,0.625,0.3125,0.625,0.68844,0.610485,0.954235,0.5,1,0.5,0.8375,0.389515,0.954235,0.34375,0.84375,0.389515,0.733265,0.5,0.6875,0.610485,0.733265,0.65625,0.84375,0.147985,0,0.852015,0,1,0.170782,1,0.410831,0.852015,0.581613,0.147985,0.581613,0,0.410831,0,0.170782]],
    "metadata": {
        "vertices": 65,
        "faces": 62,
        "version": 3,
        "type": "Geometry",
        "uvs": 1,
        "generator": "io_three",
        "normals": 42
    },
    "normals": [-0.794824,0.212043,-0.568529,-0.794824,-0.212043,-0.568529,-0.63625,-0.269601,-0.722831,-0.63625,0.269601,-0.722831,-0.813562,-0.528916,-0.241523,-0.624439,-0.71044,-0.324442,-0.813562,-0.528916,0.241523,-0.624439,-0.71044,0.324442,-0.794824,-0.212043,0.568529,-0.63625,-0.269601,0.722831,-0.794824,0.212043,0.568529,-0.63625,0.269601,0.722831,-0.813562,0.528916,0.241523,-0.624439,0.71044,0.324442,-0.813562,0.528916,-0.241523,-0.624439,0.71044,-0.324442,-0.999969,0,0,0.624439,-0.71044,0.324442,0.63625,0.269601,0.722831,0.63625,-0.269601,0.722831,0.624439,0.71044,-0.324442,0.624439,0.71044,0.324442,0.63625,-0.269601,-0.722831,0.63625,0.269601,-0.722831,0.624439,-0.71044,-0.324442,0,0.909604,0.415387,0,0.909604,-0.415387,0,0.349467,0.936918,0,-0.349437,0.936949,0,-0.909604,0.415387,0,-0.909604,-0.415387,0,-0.349437,-0.936918,0,0.349437,-0.936918,0.813562,-0.528916,-0.241523,0.813562,-0.528916,0.241523,0.794824,-0.212043,-0.568529,0.794824,0.212043,-0.568529,0.813562,0.528916,-0.241523,0.813562,0.528916,0.241523,0.794824,0.212043,0.568529,0.794824,-0.212043,0.568529,0,-0.349467,0.936918]
}