{
    "metadata": {
        "faces": 9,
        "vertices": 36,
        "uvs": 1,
        "version": 3,
        "normals": 9,
        "type": "Geometry",
        "generator": "io_three"
    },
    "faces": [41,0,1,2,3,0,1,1,0,0,0,0,0,41,4,5,6,7,2,0,0,2,1,1,1,1,41,8,9,10,11,3,2,2,3,2,2,2,2,41,12,13,14,15,0,1,1,0,3,3,3,3,41,16,17,18,19,2,0,0,2,4,4,4,4,41,20,21,22,23,3,2,2,3,5,5,5,5,41,24,25,26,27,0,1,1,0,6,6,6,6,41,28,29,30,31,2,0,0,2,7,7,7,7,41,32,33,34,35,3,2,2,3,8,8,8,8],
    "uvs": [[0.458333,0.68844,0.375,0.68844,0.541667,0.68844,0.625,0.68844]],
    "vertices": [-0.704517,-6.90594,0.749055,-0.704517,-6.90594,-0.749057,-5.29548,-7.40926,-0.749057,-5.29548,-7.40926,0.749055,1.0409,-6.90594,0.350908,-0.336387,-6.90594,1.09996,1.95909,-7.40926,4.84525,3.33638,-7.40926,4.09619,-0.336387,-6.90594,-1.09997,1.0409,-6.90594,-0.35091,3.33638,-7.40926,-4.09619,1.95909,-7.40926,-4.84525,-5.70452,-7.40926,0.749054,-5.70452,-7.40926,-0.749057,-10.2955,-6.83406,-0.749057,-10.2955,-6.83406,0.749054,3.5409,-7.40926,4.68104,2.16361,-7.40926,5.43009,4.45909,-6.83406,9.17537,5.83638,-6.83406,8.42632,2.16361,-7.40926,-5.43009,3.5409,-7.40926,-4.68104,5.83638,-6.83406,-8.42632,4.45909,-6.83406,-9.17538,-10.7045,-6.83406,0.749054,-10.7045,-6.83406,-0.749057,-15.2955,-5.75562,-0.749057,-15.2955,-5.75562,0.749055,6.0409,-6.83406,9.01117,4.66361,-6.83406,9.76022,6.95909,-5.75562,13.5055,8.33638,-5.75562,12.7564,4.66361,-6.83406,-9.76022,6.0409,-6.83406,-9.01117,8.33638,-5.75562,-12.7564,6.95909,-5.75562,-13.5055],
    "normals": [-0.108951,0.994018,0,0.054445,0.993469,0.100131,0.054445,0.993469,-0.100131,0.124302,0.992218,0,-0.062105,0.991485,-0.1142,-0.062105,0.991485,0.1142,0.228675,0.973479,0,-0.114048,0.971068,-0.209693,-0.114048,0.971068,0.209693],
    "name": "pCylinder4Geometry"
}